<?xml version="1.0" encoding="utf-8"?>
<!-- Generator: Adobe Illustrator 16.0.0, SVG Export Plug-In . SVG Version: 6.00 Build 0)  -->
<!DOCTYPE svg PUBLIC "-//W3C//DTD SVG 1.1//EN" "http://www.w3.org/Graphics/SVG/1.1/DTD/svg11.dtd">
<svg version="1.1" id="Layer_1" xmlns="http://www.w3.org/2000/svg" xmlns:xlink="http://www.w3.org/1999/xlink" x="0px" y="0px"
	 width="353.751px" height="50.667px" viewBox="0 0 353.751 50.667" enable-background="new 0 0 353.751 50.667"
	 xml:space="preserve">
<path fill="#FFFFFF" d="M60.383,16.297h8.467v30.826h-8.467V16.297z"/>
<path fill="#FFFFFF" d="M79.52,37.225c0.358,3.935,3.338,5.367,6.977,5.367c2.563,0,7.035-0.538,6.855-4.055
	c-0.178-3.577-5.128-3.995-10.077-5.13c-5.006-1.072-9.897-2.86-9.897-9.12c0-6.737,7.275-8.825,12.878-8.825
	c6.321,0,12.045,2.624,12.879,9.482H92.04c-0.596-3.222-3.279-4.116-6.261-4.116c-1.967,0-5.604,0.477-5.604,3.161
	c0,3.339,5.009,3.815,10.018,4.95c4.948,1.131,9.956,2.919,9.956,9.002c0,7.333-7.392,10.017-13.772,10.017
	c-7.751,0-13.534-3.458-13.653-10.733H79.52z"/>
<path fill="#FFFFFF" d="M125.007,26.195c-0.775-3.875-3.458-6.14-7.632-6.14c-7.334,0-9.6,5.783-9.6,12.044
	c0,5.664,2.563,11.268,9.003,11.268c4.89,0,7.811-2.861,8.467-7.512h5.187c-1.132,7.512-5.843,11.983-13.594,11.983
	c-9.42,0-14.43-6.559-14.43-15.74c0-9.242,4.771-16.516,14.549-16.516c6.976,0,12.582,3.279,13.296,10.612H125.007z"/>
<path fill="#FFFFFF" d="M160.12,47.124h-4.77v-4.891h-0.12c-2.146,3.816-5.604,5.605-10.016,5.605
	c-8.108,0-10.612-4.65-10.612-11.268V16.297h5.066v20.87c0,3.756,2.386,6.2,6.26,6.2c6.142,0,9.123-4.112,9.123-9.66V16.297h5.068
	V47.124z"/>
<path fill="#FFFFFF" d="M166.02,4.553h3.756v17.648h0.119c1.609-4.412,6.081-6.738,10.672-6.738c9.359,0,13.831,7.573,13.831,16.277
	c0,8.707-4.471,16.277-13.831,16.277c-4.948,0-9.242-2.563-10.97-6.737h-0.12v5.844h-3.458V4.553z M180.567,18.624
	c-7.991,0-10.791,6.736-10.791,13.116s2.8,13.117,10.791,13.117c7.156,0,10.076-6.737,10.076-13.117S187.723,18.624,180.567,18.624z
	"/>
<path fill="#FFFFFF" d="M200.775,23.274h0.178c1.193-3.995,6.199-7.214,11.744-6.977v2.266c-2.385-0.298-5.723,0.298-8.465,2.981
	c-2.266,2.325-3.221,4.233-3.457,8.824v16.755h-2.266V16.477h2.266V23.274z"/>
<path fill="#FFFFFF" d="M212.935,32.038c0.119,8.228,3.398,14.608,12.104,14.608c6.318,0,10.969-3.52,11.984-10.137h1.192
	c-0.833,7.035-6.083,11.329-13.058,11.329c-9.479,0.12-13.416-6.915-13.416-16.038c0-10.195,6.5-16.038,13.416-16.038
	c9.541,0,13.773,7.87,13.416,16.275H212.935z M237.382,30.845c0.059-7.513-4.174-13.891-12.104-13.891
	c-6.621,0-11.927,5.307-12.344,13.891H237.382z"/>
<path fill="#0099A8" d="M35.287,4.553H16.983v14.893h11.09v-5.354h5.247c7.572,0,11.746,3.755,11.746,11.507
	c0,8.525-3.339,11.805-11.746,11.983h-5.247v-5.714h-11.09v15.255h18.303c12.939,0,20.869-7.513,20.869-21.465
	C56.155,12.482,48.344,4.553,35.287,4.553z"/>
<rect y="18.891" fill="#0099A8" width="12.142" height="12.142"/>
<text transform="matrix(1 0 0 1 257.314 47.8384)" fill="#FFFFFF" font-family="'GoodFoot'" font-size="47.9043" letter-spacing="4">Beta</text>
</svg>
